$InterpolationScheme
"Basis3DE 2"
1
5
2
10 10
1 -2 1 -2 2 1 -2 2 2 1 
0 1 -1 0 -1 0 0 -1 0 0 
0 0 0 1 -1 -1 0 0 -1 0 
0 0 0 0 0 0 1 -1 -1 -1 
0 0 1 0 0 0 0 0 0 0 
0 0 0 0 1 0 0 0 0 0 
0 0 0 0 0 0 0 1 0 0 
0 0 0 0 0 1 0 0 0 0 
0 0 0 0 0 0 0 0 1 0 
0 0 0 0 0 0 0 0 0 1 
10 3
0 0 0 
1 0 0 
2 0 0 
0 1 0 
1 1 0 
0 2 0 
0 0 1 
1 0 1 
0 1 1 
0 0 2 
$EndInterpolationScheme
