$InterpolationScheme
"Basis 4"
1
2
2
5 5
1.00000000000000 0 0 0 0 
0 1.00000000000000 0 0 0 
-0.500000000000000 0 1.50000000000000 0 0 
0 -1.50000000000000 0 2.50000000000000 0 
0.375000000000000 0 -3.75000000000000 0 4.37500000000000 
5 3
0 0 0
1 0 0
2 0 0
3 0 0
4 0 0
$EndInterpolationScheme
