$InterpolationScheme
"BasisLin 8"
1
4
2
18 18
1.00000000000000 0 0 0 0 0 0 0 0 0 0 0 0 0 0 0 0 0 
0 1.00000000000000 0 0 0 0 0 0 0 0 0 0 0 0 0 0 0 0 
-0.500000000000000 0 1.50000000000000 0 0 0 0 0 0 0 0 0 0 0 0 0 0 0 
0 -1.50000000000000 0 2.50000000000000 0 0 0 0 0 0 0 0 0 0 0 0 0 0 
0.375000000000000 0 -3.75000000000000 0 4.37500000000000 0 0 0 0 0 0 0 0 0 0 0 0 0 
0 1.87500000000000 0 -8.75000000000000 0 7.87500000000000 0 0 0 0 0 0 0 0 0 0 0 0 
-0.312500000000000 0 6.56250000000000 0 -19.6875000000000 0 14.4375000000000 0 0 0 0 0 0 0 0 0 0 0 
0 -2.18750000000000 0 19.6875000000000 0 -43.3125000000000 0 26.8125000000000 0 0 0 0 0 0 0 0 0 0 
0.273437500000000 0 -9.84375000000000 0 54.1406250000000 0 -93.8437500000000 0 50.2734375000000 0 0 0 0 0 0 0 0 0 
0 0 0 0 0 0 0 0 0 1.00000000000000 0 0 0 0 0 0 0 0 
0 0 0 0 0 0 0 0 0 0 1.00000000000000 0 0 0 0 0 0 0 
0 0 0 0 0 0 0 0 0 -0.500000000000000 0 1.50000000000000 0 0 0 0 0 0 
0 0 0 0 0 0 0 0 0 0 -1.50000000000000 0 2.50000000000000 0 0 0 0 0 
0 0 0 0 0 0 0 0 0 0.375000000000000 0 -3.75000000000000 0 4.37500000000000 0 0 0 0 
0 0 0 0 0 0 0 0 0 0 1.87500000000000 0 -8.75000000000000 0 7.87500000000000 0 0 0 
0 0 0 0 0 0 0 0 0 -0.312500000000000 0 6.56250000000000 0 -19.6875000000000 0 14.4375000000000 0 0 
0 0 0 0 0 0 0 0 0 0 -2.18750000000000 0 19.6875000000000 0 -43.3125000000000 0 26.8125000000000 0 
0 0 0 0 0 0 0 0 0 0.273437500000000 0 -9.84375000000000 0 54.1406250000000 0 -93.8437500000000 0 50.2734375000000 
18 3
0 0 0
1 0 0
2 0 0
3 0 0
4 0 0
5 0 0
6 0 0
7 0 0
8 0 0
0 1 0
1 1 0
2 1 0
3 1 0
4 1 0
5 1 0
6 1 0
7 1 0
8 1 0
$EndInterpolationScheme
