$InterpolationScheme
"BasisLin 12"
1
4
2
26 26
1.00000000000000 0 0 0 0 0 0 0 0 0 0 0 0 0 0 0 0 0 0 0 0 0 0 0 0 0 
0 1.00000000000000 0 0 0 0 0 0 0 0 0 0 0 0 0 0 0 0 0 0 0 0 0 0 0 0 
-0.500000000000000 0 1.50000000000000 0 0 0 0 0 0 0 0 0 0 0 0 0 0 0 0 0 0 0 0 0 0 0 
0 -1.50000000000000 0 2.50000000000000 0 0 0 0 0 0 0 0 0 0 0 0 0 0 0 0 0 0 0 0 0 0 
0.375000000000000 0 -3.75000000000000 0 4.37500000000000 0 0 0 0 0 0 0 0 0 0 0 0 0 0 0 0 0 0 0 0 0 
0 1.87500000000000 0 -8.75000000000000 0 7.87500000000000 0 0 0 0 0 0 0 0 0 0 0 0 0 0 0 0 0 0 0 0 
-0.312500000000000 0 6.56250000000000 0 -19.6875000000000 0 14.4375000000000 0 0 0 0 0 0 0 0 0 0 0 0 0 0 0 0 0 0 0 
0 -2.18750000000000 0 19.6875000000000 0 -43.3125000000000 0 26.8125000000000 0 0 0 0 0 0 0 0 0 0 0 0 0 0 0 0 0 0 
0.273437500000000 0 -9.84375000000000 0 54.1406250000000 0 -93.8437500000000 0 50.2734375000000 0 0 0 0 0 0 0 0 0 0 0 0 0 0 0 0 0 
0 2.46093750000000 0 -36.0937500000000 0 140.765625000000 0 -201.093750000000 0 94.9609375000000 0 0 0 0 0 0 0 0 0 0 0 0 0 0 0 0 
-0.246093750000000 0 13.5351562500000 0 -117.304687500000 0 351.914062500000 0 -427.324218750000 0 180.425781250000 0 0 0 0 0 0 0 0 0 0 0 0 0 0 0 
0 -2.70703125000000 0 58.6523437500000 0 -351.914062500000 0 854.648437500000 0 -902.128906250000 0 344.449218750000 0 0 0 0 0 0 0 0 0 0 0 0 0 0 
0.225585937500000 0 -17.5957031250000 0 219.946289062500 0 -997.089843750000 0 2029.79003906250 0 -1894.47070312500 0 660.194335937500 0 0 0 0 0 0 0 0 0 0 0 0 0 
0 0 0 0 0 0 0 0 0 0 0 0 0 1.00000000000000 0 0 0 0 0 0 0 0 0 0 0 0 
0 0 0 0 0 0 0 0 0 0 0 0 0 0 1.00000000000000 0 0 0 0 0 0 0 0 0 0 0 
0 0 0 0 0 0 0 0 0 0 0 0 0 -0.500000000000000 0 1.50000000000000 0 0 0 0 0 0 0 0 0 0 
0 0 0 0 0 0 0 0 0 0 0 0 0 0 -1.50000000000000 0 2.50000000000000 0 0 0 0 0 0 0 0 0 
0 0 0 0 0 0 0 0 0 0 0 0 0 0.375000000000000 0 -3.75000000000000 0 4.37500000000000 0 0 0 0 0 0 0 0 
0 0 0 0 0 0 0 0 0 0 0 0 0 0 1.87500000000000 0 -8.75000000000000 0 7.87500000000000 0 0 0 0 0 0 0 
0 0 0 0 0 0 0 0 0 0 0 0 0 -0.312500000000000 0 6.56250000000000 0 -19.6875000000000 0 14.4375000000000 0 0 0 0 0 0 
0 0 0 0 0 0 0 0 0 0 0 0 0 0 -2.18750000000000 0 19.6875000000000 0 -43.3125000000000 0 26.8125000000000 0 0 0 0 0 
0 0 0 0 0 0 0 0 0 0 0 0 0 0.273437500000000 0 -9.84375000000000 0 54.1406250000000 0 -93.8437500000000 0 50.2734375000000 0 0 0 0 
0 0 0 0 0 0 0 0 0 0 0 0 0 0 2.46093750000000 0 -36.0937500000000 0 140.765625000000 0 -201.093750000000 0 94.9609375000000 0 0 0 
0 0 0 0 0 0 0 0 0 0 0 0 0 -0.246093750000000 0 13.5351562500000 0 -117.304687500000 0 351.914062500000 0 -427.324218750000 0 180.425781250000 0 0 
0 0 0 0 0 0 0 0 0 0 0 0 0 0 -2.70703125000000 0 58.6523437500000 0 -351.914062500000 0 854.648437500000 0 -902.128906250000 0 344.449218750000 0 
0 0 0 0 0 0 0 0 0 0 0 0 0 0.225585937500000 0 -17.5957031250000 0 219.946289062500 0 -997.089843750000 0 2029.79003906250 0 -1894.47070312500 0 660.194335937500 
26 3
0 0 0
1 0 0
2 0 0
3 0 0
4 0 0
5 0 0
6 0 0
7 0 0
8 0 0
9 0 0
10 0 0
11 0 0
12 0 0
0 1 0
1 1 0
2 1 0
3 1 0
4 1 0
5 1 0
6 1 0
7 1 0
8 1 0
9 1 0
10 1 0
11 1 0
12 1 0
$EndInterpolationScheme
