$InterpolationScheme
"Basis 7"
1
2
2
8 8
1.00000000000000 0 0 0 0 0 0 0 
0 1.00000000000000 0 0 0 0 0 0 
-0.500000000000000 0 1.50000000000000 0 0 0 0 0 
0 -1.50000000000000 0 2.50000000000000 0 0 0 0 
0.375000000000000 0 -3.75000000000000 0 4.37500000000000 0 0 0 
0 1.87500000000000 0 -8.75000000000000 0 7.87500000000000 0 0 
-0.312500000000000 0 6.56250000000000 0 -19.6875000000000 0 14.4375000000000 0 
0 -2.18750000000000 0 19.6875000000000 0 -43.3125000000000 0 26.8125000000000 
8 3
0 0 0
1 0 0
2 0 0
3 0 0
4 0 0
5 0 0
6 0 0
7 0 0
$EndInterpolationScheme
