$InterpolationScheme
"Basis 10"
1
3
2
66 66
-1 -1 1 0 0 0 0 0 0 0 0 0 0 0 0 0 0 0 0 0 0 0 0 0 0 0 0 0 0 0 0 0 0 0 0 0 0 0 0 0 0 0 0 0 0 0 0 0 0 0 0 0 0 0 0 0 0 0 0 0 0 0 0 0 0 0 
1 0 0 0 0 0 0 0 0 0 0 0 0 0 0 0 0 0 0 0 0 0 0 0 0 0 0 0 0 0 0 0 0 0 0 0 0 0 0 0 0 0 0 0 0 0 0 0 0 0 0 0 0 0 0 0 0 0 0 0 0 0 0 0 0 0 
0 1 0 0 0 0 0 0 0 0 0 0 0 0 0 0 0 0 0 0 0 0 0 0 0 0 0 0 0 0 0 0 0 0 0 0 0 0 0 0 0 0 0 0 0 0 0 0 0 0 0 0 0 0 0 0 0 0 0 0 0 0 0 0 0 0 
1 0 0 -1 -1 0 0 0 0 0 0 0 0 0 0 0 0 0 0 0 0 0 0 0 0 0 0 0 0 0 0 0 0 0 0 0 0 0 0 0 0 0 0 0 0 0 0 0 0 0 0 0 0 0 0 0 0 0 0 0 0 0 0 0 0 0 
0 0 0 0 1 0 0 0 0 0 0 0 0 0 0 0 0 0 0 0 0 0 0 0 0 0 0 0 0 0 0 0 0 0 0 0 0 0 0 0 0 0 0 0 0 0 0 0 0 0 0 0 0 0 0 0 0 0 0 0 0 0 0 0 0 0 
0 1 0 0 -1 -1 0 0 0 0 0 0 0 0 0 0 0 0 0 0 0 0 0 0 0 0 0 0 0 0 0 0 0 0 0 0 0 0 0 0 0 0 0 0 0 0 0 0 0 0 0 0 0 0 0 0 0 0 0 0 0 0 0 0 0 0 
-3 0 0 9 6 0 -6 -9 -3 0 0 0 0 0 0 0 0 0 0 0 0 0 0 0 0 0 0 0 0 0 0 0 0 0 0 0 0 0 0 0 0 0 0 0 0 0 0 0 0 0 0 0 0 0 0 0 0 0 0 0 0 0 0 0 0 0 
0 0 0 0 0 0 0 -3 3 0 0 0 0 0 0 0 0 0 0 0 0 0 0 0 0 0 0 0 0 0 0 0 0 0 0 0 0 0 0 0 0 0 0 0 0 0 0 0 0 0 0 0 0 0 0 0 0 0 0 0 0 0 0 0 0 0 
0 3 0 0 -6 -9 0 3 9 6 0 0 0 0 0 0 0 0 0 0 0 0 0 0 0 0 0 0 0 0 0 0 0 0 0 0 0 0 0 0 0 0 0 0 0 0 0 0 0 0 0 0 0 0 0 0 0 0 0 0 0 0 0 0 0 0 
6 0 0 -36 -21 0 60 75 22.5 0 -30 -60 -37.5 -7.5 0 0 0 0 0 0 0 0 0 0 0 0 0 0 0 0 0 0 0 0 0 0 0 0 0 0 0 0 0 0 0 0 0 0 0 0 0 0 0 0 0 0 0 0 0 0 0 0 0 0 0 0 
0 0 0 0 -1.5 0 0 0 0 0 0 7.5 -15 7.5 0 0 0 0 0 0 0 0 0 0 0 0 0 0 0 0 0 0 0 0 0 0 0 0 0 0 0 0 0 0 0 0 0 0 0 0 0 0 0 0 0 0 0 0 0 0 0 0 0 0 0 0 
0 6 0 0 -21 -36 0 22.5 75 60 0 -7.5 -37.5 -60 -30 0 0 0 0 0 0 0 0 0 0 0 0 0 0 0 0 0 0 0 0 0 0 0 0 0 0 0 0 0 0 0 0 0 0 0 0 0 0 0 0 0 0 0 0 0 0 0 0 0 0 0 
-10 0 0 100 55 0 -300 -345 -97.5 0 350 630 367.5 70 0 -140 -350 -315 -122.5 -17.5 0 0 0 0 0 0 0 0 0 0 0 0 0 0 0 0 0 0 0 0 0 0 0 0 0 0 0 0 0 0 0 0 0 0 0 0 0 0 0 0 0 0 0 0 0 0 
0 0 0 0 0 0 0 7.5 -7.5 0 0 0 0 0 0 0 -17.5 52.5 -52.5 17.5 0 0 0 0 0 0 0 0 0 0 0 0 0 0 0 0 0 0 0 0 0 0 0 0 0 0 0 0 0 0 0 0 0 0 0 0 0 0 0 0 0 0 0 0 0 0 
0 10 0 0 -55 -100 0 97.5 345 300 0 -70 -367.5 -630 -350 0 17.5 122.5 315 350 140 0 0 0 0 0 0 0 0 0 0 0 0 0 0 0 0 0 0 0 0 0 0 0 0 0 0 0 0 0 0 0 0 0 0 0 0 0 0 0 0 0 0 0 0 0 
15 0 0 -225 -120 0 1050 1155 315 0 -2100 -3570 -1995 -367.5 0 1890 4410 3780 1417.5 196.875 0 -630 -1890 -2205 -1260 -354.375 -39.375 0 0 0 0 0 0 0 0 0 0 0 0 0 0 0 0 0 0 0 0 0 0 0 0 0 0 0 0 0 0 0 0 0 0 0 0 0 0 0 
0 0 0 0 1.875 0 0 0 0 0 0 -26.25 52.5 -26.25 0 0 0 0 0 0 0 0 39.375 -157.5 236.25 -157.5 39.375 0 0 0 0 0 0 0 0 0 0 0 0 0 0 0 0 0 0 0 0 0 0 0 0 0 0 0 0 0 0 0 0 0 0 0 0 0 0 0 
0 15 0 0 -120 -225 0 315 1155 1050 0 -367.5 -1995 -3570 -2100 0 196.875 1417.5 3780 4410 1890 0 -39.375 -354.375 -1260 -2205 -1890 -630 0 0 0 0 0 0 0 0 0 0 0 0 0 0 0 0 0 0 0 0 0 0 0 0 0 0 0 0 0 0 0 0 0 0 0 0 0 0 
-21 0 0 441 231 0 -2940 -3150 -840 0 8820 14490 7875 1417.5 0 -13230 -29610 -24570 -8977.5 -1220.625 0 9702 27720 31185 17325 4764.375 519.75 0 -2772 -9702 -13860 -10395 -4331.25 -952.875 -86.625 0 0 0 0 0 0 0 0 0 0 0 0 0 0 0 0 0 0 0 0 0 0 0 0 0 0 0 0 0 0 0 
0 0 0 0 0 0 0 -13.125 13.125 0 0 0 0 0 0 0 78.75 -236.25 236.25 -78.75 0 0 0 0 0 0 0 0 0 -86.625 433.125 -866.25 866.25 -433.125 86.625 0 0 0 0 0 0 0 0 0 0 0 0 0 0 0 0 0 0 0 0 0 0 0 0 0 0 0 0 0 0 0 
0 21 0 0 -231 -441 0 840 3150 2940 0 -1417.5 -7875 -14490 -8820 0 1220.625 8977.5 24570 29610 13230 0 -519.75 -4764.375 -17325 -31185 -27720 -9702 0 86.625 952.875 4331.25 10395 13860 9702 2772 0 0 0 0 0 0 0 0 0 0 0 0 0 0 0 0 0 0 0 0 0 0 0 0 0 0 0 0 0 0 
28 0 0 -784 -406 0 7056 7434 1953 0 -29400 -47250 -25200 -4462.5 0 64680 140910 114345 41002.5 5486.25 0 -77616 -214830 -235620 -128205 -34650 -3724.875 0 48048 162162 225225 165165 67567.5 14639.625 1313.8125 0 -12012 -48048 -81081 -75075 -41291.25 -13513.5 -2439.9375 -187.6875 0 0 0 0 0 0 0 0 0 0 0 0 0 0 0 0 0 0 0 0 0 0 
0 0 0 0 -2.1875 0 0 0 0 0 0 59.0625 -118.125 59.0625 0 0 0 0 0 0 0 0 -216.5625 866.25 -1299.375 866.25 -216.5625 0 0 0 0 0 0 0 0 0 0 187.6875 -1126.125 2815.3125 -3753.75 2815.3125 -1126.125 187.6875 0 0 0 0 0 0 0 0 0 0 0 0 0 0 0 0 0 0 0 0 0 0 
0 28 0 0 -406 -784 0 1953 7434 7056 0 -4462.5 -25200 -47250 -29400 0 5486.25 41002.5 114345 140910 64680 0 -3724.875 -34650 -128205 -235620 -214830 -77616 0 1313.8125 14639.625 67567.5 165165 225225 162162 48048 0 -187.6875 -2439.9375 -13513.5 -41291.25 -75075 -81081 -48048 -12012 0 0 0 0 0 0 0 0 0 0 0 0 0 0 0 0 0 0 0 0 0 
-36 0 0 1296 666 0 -15120 -15750 -4095 0 83160 131670 69300 12127.5 0 -249480 -533610 -426195 -150727.5 -19923.75 0 432432 1171170 1261260 675675 180180 19144.125 0 -432432 -1423422 -1936935 -1396395 -563062.5 -120495.375 -10698.1875 0 231660 900900 1486485 1351350 731981.25 236486.25 42229.6875 3217.5 0 -51480 -231660 -450450 -495495 -337837.5 -146396.25 -39414.375 -6032.8125 -402.1875 0 0 0 0 0 0 0 0 0 0 0 0 
0 0 0 0 0 0 0 19.6875 -19.6875 0 0 0 0 0 0 0 -216.5625 649.6875 -649.6875 216.5625 0 0 0 0 0 0 0 0 0 563.0625 -2815.3125 5630.625 -5630.625 2815.3125 -563.0625 0 0 0 0 0 0 0 0 0 0 0 -402.1875 2815.3125 -8445.9375 14076.5625 -14076.5625 8445.9375 -2815.3125 402.1875 0 0 0 0 0 0 0 0 0 0 0 0 
0 36 0 0 -666 -1296 0 4095 15750 15120 0 -12127.5 -69300 -131670 -83160 0 19923.75 150727.5 426195 533610 249480 0 -19144.125 -180180 -675675 -1261260 -1171170 -432432 0 10698.1875 120495.375 563062.5 1396395 1936935 1423422 432432 0 -3217.5 -42229.6875 -236486.25 -731981.25 -1351350 -1486485 -900900 -231660 0 402.1875 6032.8125 39414.375 146396.25 337837.5 495495 450450 231660 51480 0 0 0 0 0 0 0 0 0 0 0 
45 0 0 -2025 -1035 0 29700 30690 7920 0 -207900 -325710 -169785 -29452.5 0 810810 1711710 1351350 472972.5 61936.875 0 -1891890 -5045040 -5360355 -2837835 -748873.125 -78828.75 0 2702700 8738730 11711700 8333325 3.32206875e6 703828.125 61936.875 0 -2316600 -8828820 -14324310 -12837825 -6.8693625e6 -2.19594375e6 -388513.125 -29359.6875 0 1093950 4813380 9189180 9954945 6.70044375e6 2.87161875e6 765765 116232.1875 7691.8359375 0 -218790 -1093950 -2406690 -3063060 -2.48873625e6 -1.34008875e6 -478603.125 -109395 -14529.0234375 -854.6484375 0 
0 0 0 0 2.4609375 0 0 0 0 0 0 -108.28125 216.5625 -108.28125 0 0 0 0 0 0 0 0 703.828125 -2815.3125 4222.96875 -2815.3125 703.828125 0 0 0 0 0 0 0 0 0 0 -1407.65625 8445.9375 -21114.84375 28153.125 -21114.84375 8445.9375 -1407.65625 0 0 0 0 0 0 0 0 0 0 0 0 854.6484375 -6837.1875 23930.15625 -47860.3125 59825.390625 -47860.3125 23930.15625 -6837.1875 854.6484375 0 
0 45 0 0 -1035 -2025 0 7920 30690 29700 0 -29452.5 -169785 -325710 -207900 0 61936.875 472972.5 1351350 1711710 810810 0 -78828.75 -748873.125 -2837835 -5360355 -5045040 -1891890 0 61936.875 703828.125 3.32206875e6 8333325 11711700 8738730 2702700 0 -29359.6875 -388513.125 -2.19594375e6 -6.8693625e6 -12837825 -14324310 -8828820 -2316600 0 7691.8359375 116232.1875 765765 2.87161875e6 6.70044375e6 9954945 9189180 4813380 1093950 0 -854.6484375 -14529.0234375 -109395 -478603.125 -1.34008875e6 -2.48873625e6 -3063060 -2406690 -1093950 -218790 
0 0 0 0 0 0 0 0 0 0 0 0 0 0 0 0 0 0 0 0 0 0 0 0 0 0 0 0 0 0 0 0 0 0 0 0 0 0 0 0 0 0 0 0 0 0 0 0 0 0 0 0 0 1 0 0 0 0 0 0 0 0 0 -1 -1 0 
0 0 0 0 0 0 0 0 0 0 0 0 0 0 0 0 0 0 0 0 0 0 0 0 0 0 0 0 0 0 0 0 0 0 0 0 0 0 0 0 0 0 0 0 0 0 0 0 0 0 0 0 1 0 0 0 0 0 0 0 0 0 -1 -1 0 0 
0 0 0 0 0 0 0 0 0 0 0 0 0 0 0 0 0 0 0 0 0 0 0 0 0 0 0 0 0 0 0 0 0 0 0 0 0 0 0 0 0 0 0 0 0 0 0 0 0 0 0 1 0 0 0 0 0 0 0 0 0 -1 -1 0 0 0 
0 0 0 0 0 0 0 0 0 0 0 0 0 0 0 0 0 0 0 0 0 0 0 0 0 0 0 0 0 0 0 0 0 0 0 0 0 0 0 0 0 0 0 0 0 0 0 0 0 0 1 0 0 0 0 0 0 0 0 0 -1 -1 0 0 0 0 
0 0 0 0 0 0 0 0 0 0 0 0 0 0 0 0 0 0 0 0 0 0 0 0 0 0 0 0 0 0 0 0 0 0 0 0 0 0 0 0 0 0 0 0 0 0 0 0 0 1 0 0 0 0 0 0 0 0 0 -1 -1 0 0 0 0 0 
0 0 0 0 0 0 0 0 0 0 0 0 0 0 0 0 0 0 0 0 0 0 0 0 0 0 0 0 0 0 0 0 0 0 0 0 0 0 0 0 0 0 0 0 0 0 0 0 1 0 0 0 0 0 0 0 0 0 -1 -1 0 0 0 0 0 0 
0 0 0 0 0 0 0 0 0 0 0 0 0 0 0 0 0 0 0 0 0 0 0 0 0 0 0 0 0 0 0 0 0 0 0 0 0 0 0 0 0 0 0 0 0 0 0 1 0 0 0 0 0 0 0 0 0 -1 -1 0 0 0 0 0 0 0 
0 0 0 0 0 0 0 0 0 0 0 0 0 0 0 0 0 0 0 0 0 0 0 0 0 0 0 0 0 0 0 0 0 0 0 0 0 0 0 0 0 0 0 0 0 0 1 0 0 0 0 0 0 0 0 0 -1 -1 0 0 0 0 0 0 0 0 
0 0 0 0 0 0 0 0 0 0 0 0 0 0 0 0 0 0 0 0 0 0 0 0 0 0 0 0 0 0 0 0 0 0 0 0 0 0 0 0 0 0 0 1 0 0 0 0 0 0 0 0 -2 -2 0 0 0 0 0 0 0 0 1 2 1 0 
0 0 0 0 0 0 0 0 0 0 0 0 0 0 0 0 0 0 0 0 0 0 0 0 0 0 0 0 0 0 0 0 0 0 0 0 0 0 0 0 0 0 1 0 0 0 0 0 0 0 0 -2 -2 0 0 0 0 0 0 0 0 1 2 1 0 0 
0 0 0 0 0 0 0 0 0 0 0 0 0 0 0 0 0 0 0 0 0 0 0 0 0 0 0 0 0 0 0 0 0 0 0 0 0 0 0 0 0 1 0 0 0 0 0 0 0 0 -2 -2 0 0 0 0 0 0 0 0 1 2 1 0 0 0 
0 0 0 0 0 0 0 0 0 0 0 0 0 0 0 0 0 0 0 0 0 0 0 0 0 0 0 0 0 0 0 0 0 0 0 0 0 0 0 0 1 0 0 0 0 0 0 0 0 -2 -2 0 0 0 0 0 0 0 0 1 2 1 0 0 0 0 
0 0 0 0 0 0 0 0 0 0 0 0 0 0 0 0 0 0 0 0 0 0 0 0 0 0 0 0 0 0 0 0 0 0 0 0 0 0 0 1 0 0 0 0 0 0 0 0 -2 -2 0 0 0 0 0 0 0 0 1 2 1 0 0 0 0 0 
0 0 0 0 0 0 0 0 0 0 0 0 0 0 0 0 0 0 0 0 0 0 0 0 0 0 0 0 0 0 0 0 0 0 0 0 0 0 1 0 0 0 0 0 0 0 0 -2 -2 0 0 0 0 0 0 0 0 1 2 1 0 0 0 0 0 0 
0 0 0 0 0 0 0 0 0 0 0 0 0 0 0 0 0 0 0 0 0 0 0 0 0 0 0 0 0 0 0 0 0 0 0 0 0 1 0 0 0 0 0 0 0 0 -2 -2 0 0 0 0 0 0 0 0 1 2 1 0 0 0 0 0 0 0 
0 0 0 0 0 0 0 0 0 0 0 0 0 0 0 0 0 0 0 0 0 0 0 0 0 0 0 0 0 0 0 0 0 0 1 0 0 0 0 0 0 0 -3 -3 0 0 0 0 0 0 0 3 6 3 0 0 0 0 0 0 0 -1 -3 -3 -1 0 
0 0 0 0 0 0 0 0 0 0 0 0 0 0 0 0 0 0 0 0 0 0 0 0 0 0 0 0 0 0 0 0 0 1 0 0 0 0 0 0 0 -3 -3 0 0 0 0 0 0 0 3 6 3 0 0 0 0 0 0 0 -1 -3 -3 -1 0 0 
0 0 0 0 0 0 0 0 0 0 0 0 0 0 0 0 0 0 0 0 0 0 0 0 0 0 0 0 0 0 0 0 1 0 0 0 0 0 0 0 -3 -3 0 0 0 0 0 0 0 3 6 3 0 0 0 0 0 0 0 -1 -3 -3 -1 0 0 0 
0 0 0 0 0 0 0 0 0 0 0 0 0 0 0 0 0 0 0 0 0 0 0 0 0 0 0 0 0 0 0 1 0 0 0 0 0 0 0 -3 -3 0 0 0 0 0 0 0 3 6 3 0 0 0 0 0 0 0 -1 -3 -3 -1 0 0 0 0 
0 0 0 0 0 0 0 0 0 0 0 0 0 0 0 0 0 0 0 0 0 0 0 0 0 0 0 0 0 0 1 0 0 0 0 0 0 0 -3 -3 0 0 0 0 0 0 0 3 6 3 0 0 0 0 0 0 0 -1 -3 -3 -1 0 0 0 0 0 
0 0 0 0 0 0 0 0 0 0 0 0 0 0 0 0 0 0 0 0 0 0 0 0 0 0 0 0 0 1 0 0 0 0 0 0 0 -3 -3 0 0 0 0 0 0 0 3 6 3 0 0 0 0 0 0 0 -1 -3 -3 -1 0 0 0 0 0 0 
0 0 0 0 0 0 0 0 0 0 0 0 0 0 0 0 0 0 0 0 0 0 0 0 0 0 1 0 0 0 0 0 0 -4 -4 0 0 0 0 0 0 6 12 6 0 0 0 0 0 0 -4 -12 -12 -4 0 0 0 0 0 0 1 4 6 4 1 0 
0 0 0 0 0 0 0 0 0 0 0 0 0 0 0 0 0 0 0 0 0 0 0 0 0 1 0 0 0 0 0 0 -4 -4 0 0 0 0 0 0 6 12 6 0 0 0 0 0 0 -4 -12 -12 -4 0 0 0 0 0 0 1 4 6 4 1 0 0 
0 0 0 0 0 0 0 0 0 0 0 0 0 0 0 0 0 0 0 0 0 0 0 0 1 0 0 0 0 0 0 -4 -4 0 0 0 0 0 0 6 12 6 0 0 0 0 0 0 -4 -12 -12 -4 0 0 0 0 0 0 1 4 6 4 1 0 0 0 
0 0 0 0 0 0 0 0 0 0 0 0 0 0 0 0 0 0 0 0 0 0 0 1 0 0 0 0 0 0 -4 -4 0 0 0 0 0 0 6 12 6 0 0 0 0 0 0 -4 -12 -12 -4 0 0 0 0 0 0 1 4 6 4 1 0 0 0 0 
0 0 0 0 0 0 0 0 0 0 0 0 0 0 0 0 0 0 0 0 0 0 1 0 0 0 0 0 0 -4 -4 0 0 0 0 0 0 6 12 6 0 0 0 0 0 0 -4 -12 -12 -4 0 0 0 0 0 0 1 4 6 4 1 0 0 0 0 0 
0 0 0 0 0 0 0 0 0 0 0 0 0 0 0 0 0 0 0 1 0 0 0 0 0 -5 -5 0 0 0 0 0 10 20 10 0 0 0 0 0 -10 -30 -30 -10 0 0 0 0 0 5 20 30 20 5 0 0 0 0 0 -1 -5 -10 -10 -5 -1 0 
0 0 0 0 0 0 0 0 0 0 0 0 0 0 0 0 0 0 1 0 0 0 0 0 -5 -5 0 0 0 0 0 10 20 10 0 0 0 0 0 -10 -30 -30 -10 0 0 0 0 0 5 20 30 20 5 0 0 0 0 0 -1 -5 -10 -10 -5 -1 0 0 
0 0 0 0 0 0 0 0 0 0 0 0 0 0 0 0 0 1 0 0 0 0 0 -5 -5 0 0 0 0 0 10 20 10 0 0 0 0 0 -10 -30 -30 -10 0 0 0 0 0 5 20 30 20 5 0 0 0 0 0 -1 -5 -10 -10 -5 -1 0 0 0 
0 0 0 0 0 0 0 0 0 0 0 0 0 0 0 0 1 0 0 0 0 0 -5 -5 0 0 0 0 0 10 20 10 0 0 0 0 0 -10 -30 -30 -10 0 0 0 0 0 5 20 30 20 5 0 0 0 0 0 -1 -5 -10 -10 -5 -1 0 0 0 0 
0 0 0 0 0 0 0 0 0 0 0 0 0 1 0 0 0 0 -6 -6 0 0 0 0 15 30 15 0 0 0 0 -20 -60 -60 -20 0 0 0 0 15 60 90 60 15 0 0 0 0 -6 -30 -60 -60 -30 -6 0 0 0 0 1 6 15 20 15 6 1 0 
0 0 0 0 0 0 0 0 0 0 0 0 1 0 0 0 0 -6 -6 0 0 0 0 15 30 15 0 0 0 0 -20 -60 -60 -20 0 0 0 0 15 60 90 60 15 0 0 0 0 -6 -30 -60 -60 -30 -6 0 0 0 0 1 6 15 20 15 6 1 0 0 
0 0 0 0 0 0 0 0 0 0 0 1 0 0 0 0 -6 -6 0 0 0 0 15 30 15 0 0 0 0 -20 -60 -60 -20 0 0 0 0 15 60 90 60 15 0 0 0 0 -6 -30 -60 -60 -30 -6 0 0 0 0 1 6 15 20 15 6 1 0 0 0 
0 0 0 0 0 0 0 0 1 0 0 0 -7 -7 0 0 0 21 42 21 0 0 0 -35 -105 -105 -35 0 0 0 35 140 210 140 35 0 0 0 -21 -105 -210 -210 -105 -21 0 0 0 7 42 105 140 105 42 7 0 0 0 -1 -7 -21 -35 -35 -21 -7 -1 0 
0 0 0 0 0 0 0 1 0 0 0 -7 -7 0 0 0 21 42 21 0 0 0 -35 -105 -105 -35 0 0 0 35 140 210 140 35 0 0 0 -21 -105 -210 -210 -105 -21 0 0 0 7 42 105 140 105 42 7 0 0 0 -1 -7 -21 -35 -35 -21 -7 -1 0 0 
0 0 0 0 1 0 0 -8 -8 0 0 28 56 28 0 0 -56 -168 -168 -56 0 0 70 280 420 280 70 0 0 -56 -280 -560 -560 -280 -56 0 0 28 168 420 560 420 168 28 0 0 -8 -56 -168 -280 -280 -168 -56 -8 0 0 1 8 28 56 70 56 28 8 1 0 
66 3
1 0 0
0 1 0
0 0 0
2 0 0
1 1 0
0 2 0
3 0 0
2 1 0
1 2 0
0 3 0
4 0 0
3 1 0
2 2 0
1 3 0
0 4 0
5 0 0
4 1 0
3 2 0
2 3 0
1 4 0
0 5 0
6 0 0
5 1 0
4 2 0
3 3 0
2 4 0
1 5 0
0 6 0
7 0 0
6 1 0
5 2 0
4 3 0
3 4 0
2 5 0
1 6 0
0 7 0
8 0 0
7 1 0
6 2 0
5 3 0
4 4 0
3 5 0
2 6 0
1 7 0
0 8 0
9 0 0
8 1 0
7 2 0
6 3 0
5 4 0
4 5 0
3 6 0
2 7 0
1 8 0
0 9 0
10 0 0
9 1 0
8 2 0
7 3 0
6 4 0
5 5 0
4 6 0
3 7 0
2 8 0
1 9 0
0 10 0
$EndInterpolationScheme
