$InterpolationScheme
"BasisHCT d12"
1
3
2
91 91
1 -12 66 -220 495 -792 924 -792 495 -220 66 -12 1 -12 132 -660 1980 -3960 5544 -5544 3960 -1980 660 -132 12 66 -660 2970 -7920 13860 -16632 13860 -7920 2970 -660 66 -220 1980 -7920 18480 -27720 27720 -18480 7920 -1980 220 495 -3960 13860 -27720 34650 -27720 13860 -3960 495 -792 5544 -16632 27720 -27720 16632 -5544 792 924 -5544 13860 -18480 13860 -5544 924 -792 3960 -7920 7920 -3960 792 495 -1980 2970 -1980 495 -220 660 -660 220 66 -132 66 -12 12 1 
0 1 -11 55 -165 330 -462 462 -330 165 -55 11 -1 0 -11 110 -495 1320 -2310 2772 -2310 1320 -495 110 -11 0 55 -495 1980 -4620 6930 -6930 4620 -1980 495 -55 0 -165 1320 -4620 9240 -11550 9240 -4620 1320 -165 0 330 -2310 6930 -11550 11550 -6930 2310 -330 0 -462 2772 -6930 9240 -6930 2772 -462 0 462 -2310 4620 -4620 2310 -462 0 -330 1320 -1980 1320 -330 0 165 -495 495 -165 0 -55 110 -55 0 11 -11 0 -1 0 
0 0 1 -10 45 -120 210 -252 210 -120 45 -10 1 0 0 -10 90 -360 840 -1260 1260 -840 360 -90 10 0 0 45 -360 1260 -2520 3150 -2520 1260 -360 45 0 0 -120 840 -2520 4200 -4200 2520 -840 120 0 0 210 -1260 3150 -4200 3150 -1260 210 0 0 -252 1260 -2520 2520 -1260 252 0 0 210 -840 1260 -840 210 0 0 -120 360 -360 120 0 0 45 -90 45 0 0 -10 10 0 0 1 0 0 0 
0 0 0 1 -9 36 -84 126 -126 84 -36 9 -1 0 0 0 -9 72 -252 504 -630 504 -252 72 -9 0 0 0 36 -252 756 -1260 1260 -756 252 -36 0 0 0 -84 504 -1260 1680 -1260 504 -84 0 0 0 126 -630 1260 -1260 630 -126 0 0 0 -126 504 -756 504 -126 0 0 0 84 -252 252 -84 0 0 0 -36 72 -36 0 0 0 9 -9 0 0 0 -1 0 0 0 0 0 0 
0 0 0 0 1 -8 28 -56 70 -56 28 -8 1 0 0 0 0 -8 56 -168 280 -280 168 -56 8 0 0 0 0 28 -168 420 -560 420 -168 28 0 0 0 0 -56 280 -560 560 -280 56 0 0 0 0 70 -280 420 -280 70 0 0 0 0 -56 168 -168 56 0 0 0 0 28 -56 28 0 0 0 0 -8 8 0 0 0 0 1 0 0 0 0 0 0 0 0 0 0 
0 0 0 0 0 1 -7 21 -35 35 -21 7 -1 0 0 0 0 0 -7 42 -105 140 -105 42 -7 0 0 0 0 0 21 -105 210 -210 105 -21 0 0 0 0 0 -35 140 -210 140 -35 0 0 0 0 0 35 -105 105 -35 0 0 0 0 0 -21 42 -21 0 0 0 0 0 7 -7 0 0 0 0 0 -1 0 0 0 0 0 0 0 0 0 0 0 0 0 0 0 
0 0 0 0 0 0 1 -6 15 -20 15 -6 1 0 0 0 0 0 0 -6 30 -60 60 -30 6 0 0 0 0 0 0 15 -60 90 -60 15 0 0 0 0 0 0 -20 60 -60 20 0 0 0 0 0 0 15 -30 15 0 0 0 0 0 0 -6 6 0 0 0 0 0 0 1 0 0 0 0 0 0 0 0 0 0 0 0 0 0 0 0 0 0 0 0 0 
0 0 0 0 0 0 0 1 -5 10 -10 5 -1 0 0 0 0 0 0 0 -5 20 -30 20 -5 0 0 0 0 0 0 0 10 -30 30 -10 0 0 0 0 0 0 0 -10 20 -10 0 0 0 0 0 0 0 5 -5 0 0 0 0 0 0 0 -1 0 0 0 0 0 0 0 0 0 0 0 0 0 0 0 0 0 0 0 0 0 0 0 0 0 0 0 0 
0 0 0 0 0 0 0 0 1 -4 6 -4 1 0 0 0 0 0 0 0 0 -4 12 -12 4 0 0 0 0 0 0 0 0 6 -12 6 0 0 0 0 0 0 0 0 -4 4 0 0 0 0 0 0 0 0 1 0 0 0 0 0 0 0 0 0 0 0 0 0 0 0 0 0 0 0 0 0 0 0 0 0 0 0 0 0 0 0 0 0 0 0 0 
0 0 0 0 0 0 0 0 0 1 -3 3 -1 0 0 0 0 0 0 0 0 0 -3 6 -3 0 0 0 0 0 0 0 0 0 3 -3 0 0 0 0 0 0 0 0 0 -1 0 0 0 0 0 0 0 0 0 0 0 0 0 0 0 0 0 0 0 0 0 0 0 0 0 0 0 0 0 0 0 0 0 0 0 0 0 0 0 0 0 0 0 0 0 
0 0 0 0 0 0 0 0 0 0 1 -2 1 0 0 0 0 0 0 0 0 0 0 -2 2 0 0 0 0 0 0 0 0 0 0 1 0 0 0 0 0 0 0 0 0 0 0 0 0 0 0 0 0 0 0 0 0 0 0 0 0 0 0 0 0 0 0 0 0 0 0 0 0 0 0 0 0 0 0 0 0 0 0 0 0 0 0 0 0 0 0 
0 0 0 0 0 0 0 0 0 0 0 1 -1 0 0 0 0 0 0 0 0 0 0 0 -1 0 0 0 0 0 0 0 0 0 0 0 0 0 0 0 0 0 0 0 0 0 0 0 0 0 0 0 0 0 0 0 0 0 0 0 0 0 0 0 0 0 0 0 0 0 0 0 0 0 0 0 0 0 0 0 0 0 0 0 0 0 0 0 0 0 0 
0 0 0 0 0 0 0 0 0 0 0 0 1 0 0 0 0 0 0 0 0 0 0 0 0 0 0 0 0 0 0 0 0 0 0 0 0 0 0 0 0 0 0 0 0 0 0 0 0 0 0 0 0 0 0 0 0 0 0 0 0 0 0 0 0 0 0 0 0 0 0 0 0 0 0 0 0 0 0 0 0 0 0 0 0 0 0 0 0 0 0 
0 0 0 0 0 0 0 0 0 0 0 0 0 1 -11 55 -165 330 -462 462 -330 165 -55 11 -1 -11 110 -495 1320 -2310 2772 -2310 1320 -495 110 -11 55 -495 1980 -4620 6930 -6930 4620 -1980 495 -55 -165 1320 -4620 9240 -11550 9240 -4620 1320 -165 330 -2310 6930 -11550 11550 -6930 2310 -330 -462 2772 -6930 9240 -6930 2772 -462 462 -2310 4620 -4620 2310 -462 -330 1320 -1980 1320 -330 165 -495 495 -165 -55 110 -55 11 -11 -1 
0 0 0 0 0 0 0 0 0 0 0 0 0 0 1 -10 45 -120 210 -252 210 -120 45 -10 1 0 -10 90 -360 840 -1260 1260 -840 360 -90 10 0 45 -360 1260 -2520 3150 -2520 1260 -360 45 0 -120 840 -2520 4200 -4200 2520 -840 120 0 210 -1260 3150 -4200 3150 -1260 210 0 -252 1260 -2520 2520 -1260 252 0 210 -840 1260 -840 210 0 -120 360 -360 120 0 45 -90 45 0 -10 10 0 1 0 
0 0 0 0 0 0 0 0 0 0 0 0 0 0 0 1 -9 36 -84 126 -126 84 -36 9 -1 0 0 -9 72 -252 504 -630 504 -252 72 -9 0 0 36 -252 756 -1260 1260 -756 252 -36 0 0 -84 504 -1260 1680 -1260 504 -84 0 0 126 -630 1260 -1260 630 -126 0 0 -126 504 -756 504 -126 0 0 84 -252 252 -84 0 0 -36 72 -36 0 0 9 -9 0 0 -1 0 0 0 
0 0 0 0 0 0 0 0 0 0 0 0 0 0 0 0 1 -8 28 -56 70 -56 28 -8 1 0 0 0 -8 56 -168 280 -280 168 -56 8 0 0 0 28 -168 420 -560 420 -168 28 0 0 0 -56 280 -560 560 -280 56 0 0 0 70 -280 420 -280 70 0 0 0 -56 168 -168 56 0 0 0 28 -56 28 0 0 0 -8 8 0 0 0 1 0 0 0 0 0 0 
0 0 0 0 0 0 0 0 0 0 0 0 0 0 0 0 0 1 -7 21 -35 35 -21 7 -1 0 0 0 0 -7 42 -105 140 -105 42 -7 0 0 0 0 21 -105 210 -210 105 -21 0 0 0 0 -35 140 -210 140 -35 0 0 0 0 35 -105 105 -35 0 0 0 0 -21 42 -21 0 0 0 0 7 -7 0 0 0 0 -1 0 0 0 0 0 0 0 0 0 0 
0 0 0 0 0 0 0 0 0 0 0 0 0 0 0 0 0 0 1 -6 15 -20 15 -6 1 0 0 0 0 0 -6 30 -60 60 -30 6 0 0 0 0 0 15 -60 90 -60 15 0 0 0 0 0 -20 60 -60 20 0 0 0 0 0 15 -30 15 0 0 0 0 0 -6 6 0 0 0 0 0 1 0 0 0 0 0 0 0 0 0 0 0 0 0 0 0 
0 0 0 0 0 0 0 0 0 0 0 0 0 0 0 0 0 0 0 1 -5 10 -10 5 -1 0 0 0 0 0 0 -5 20 -30 20 -5 0 0 0 0 0 0 10 -30 30 -10 0 0 0 0 0 0 -10 20 -10 0 0 0 0 0 0 5 -5 0 0 0 0 0 0 -1 0 0 0 0 0 0 0 0 0 0 0 0 0 0 0 0 0 0 0 0 0 
0 0 0 0 0 0 0 0 0 0 0 0 0 0 0 0 0 0 0 0 1 -4 6 -4 1 0 0 0 0 0 0 0 -4 12 -12 4 0 0 0 0 0 0 0 6 -12 6 0 0 0 0 0 0 0 -4 4 0 0 0 0 0 0 0 1 0 0 0 0 0 0 0 0 0 0 0 0 0 0 0 0 0 0 0 0 0 0 0 0 0 0 0 0 
0 0 0 0 0 0 0 0 0 0 0 0 0 0 0 0 0 0 0 0 0 1 -3 3 -1 0 0 0 0 0 0 0 0 -3 6 -3 0 0 0 0 0 0 0 0 3 -3 0 0 0 0 0 0 0 0 -1 0 0 0 0 0 0 0 0 0 0 0 0 0 0 0 0 0 0 0 0 0 0 0 0 0 0 0 0 0 0 0 0 0 0 0 0 
0 0 0 0 0 0 0 0 0 0 0 0 0 0 0 0 0 0 0 0 0 0 1 -2 1 0 0 0 0 0 0 0 0 0 -2 2 0 0 0 0 0 0 0 0 0 1 0 0 0 0 0 0 0 0 0 0 0 0 0 0 0 0 0 0 0 0 0 0 0 0 0 0 0 0 0 0 0 0 0 0 0 0 0 0 0 0 0 0 0 0 0 
0 0 0 0 0 0 0 0 0 0 0 0 0 0 0 0 0 0 0 0 0 0 0 1 -1 0 0 0 0 0 0 0 0 0 0 -1 0 0 0 0 0 0 0 0 0 0 0 0 0 0 0 0 0 0 0 0 0 0 0 0 0 0 0 0 0 0 0 0 0 0 0 0 0 0 0 0 0 0 0 0 0 0 0 0 0 0 0 0 0 0 0 
0 0 0 0 0 0 0 0 0 0 0 0 0 0 0 0 0 0 0 0 0 0 0 0 1 0 0 0 0 0 0 0 0 0 0 0 0 0 0 0 0 0 0 0 0 0 0 0 0 0 0 0 0 0 0 0 0 0 0 0 0 0 0 0 0 0 0 0 0 0 0 0 0 0 0 0 0 0 0 0 0 0 0 0 0 0 0 0 0 0 0 
0 0 0 0 0 0 0 0 0 0 0 0 0 0 0 0 0 0 0 0 0 0 0 0 0 1 -10 45 -120 210 -252 210 -120 45 -10 1 -10 90 -360 840 -1260 1260 -840 360 -90 10 45 -360 1260 -2520 3150 -2520 1260 -360 45 -120 840 -2520 4200 -4200 2520 -840 120 210 -1260 3150 -4200 3150 -1260 210 -252 1260 -2520 2520 -1260 252 210 -840 1260 -840 210 -120 360 -360 120 45 -90 45 -10 10 1 
0 0 0 0 0 0 0 0 0 0 0 0 0 0 0 0 0 0 0 0 0 0 0 0 0 0 1 -9 36 -84 126 -126 84 -36 9 -1 0 -9 72 -252 504 -630 504 -252 72 -9 0 36 -252 756 -1260 1260 -756 252 -36 0 -84 504 -1260 1680 -1260 504 -84 0 126 -630 1260 -1260 630 -126 0 -126 504 -756 504 -126 0 84 -252 252 -84 0 -36 72 -36 0 9 -9 0 -1 0 
0 0 0 0 0 0 0 0 0 0 0 0 0 0 0 0 0 0 0 0 0 0 0 0 0 0 0 1 -8 28 -56 70 -56 28 -8 1 0 0 -8 56 -168 280 -280 168 -56 8 0 0 28 -168 420 -560 420 -168 28 0 0 -56 280 -560 560 -280 56 0 0 70 -280 420 -280 70 0 0 -56 168 -168 56 0 0 28 -56 28 0 0 -8 8 0 0 1 0 0 0 
0 0 0 0 0 0 0 0 0 0 0 0 0 0 0 0 0 0 0 0 0 0 0 0 0 0 0 0 1 -7 21 -35 35 -21 7 -1 0 0 0 -7 42 -105 140 -105 42 -7 0 0 0 21 -105 210 -210 105 -21 0 0 0 -35 140 -210 140 -35 0 0 0 35 -105 105 -35 0 0 0 -21 42 -21 0 0 0 7 -7 0 0 0 -1 0 0 0 0 0 0 
0 0 0 0 0 0 0 0 0 0 0 0 0 0 0 0 0 0 0 0 0 0 0 0 0 0 0 0 0 1 -6 15 -20 15 -6 1 0 0 0 0 -6 30 -60 60 -30 6 0 0 0 0 15 -60 90 -60 15 0 0 0 0 -20 60 -60 20 0 0 0 0 15 -30 15 0 0 0 0 -6 6 0 0 0 0 1 0 0 0 0 0 0 0 0 0 0 
0 0 0 0 0 0 0 0 0 0 0 0 0 0 0 0 0 0 0 0 0 0 0 0 0 0 0 0 0 0 1 -5 10 -10 5 -1 0 0 0 0 0 -5 20 -30 20 -5 0 0 0 0 0 10 -30 30 -10 0 0 0 0 0 -10 20 -10 0 0 0 0 0 5 -5 0 0 0 0 0 -1 0 0 0 0 0 0 0 0 0 0 0 0 0 0 0 
0 0 0 0 0 0 0 0 0 0 0 0 0 0 0 0 0 0 0 0 0 0 0 0 0 0 0 0 0 0 0 1 -4 6 -4 1 0 0 0 0 0 0 -4 12 -12 4 0 0 0 0 0 0 6 -12 6 0 0 0 0 0 0 -4 4 0 0 0 0 0 0 1 0 0 0 0 0 0 0 0 0 0 0 0 0 0 0 0 0 0 0 0 0 
0 0 0 0 0 0 0 0 0 0 0 0 0 0 0 0 0 0 0 0 0 0 0 0 0 0 0 0 0 0 0 0 1 -3 3 -1 0 0 0 0 0 0 0 -3 6 -3 0 0 0 0 0 0 0 3 -3 0 0 0 0 0 0 0 -1 0 0 0 0 0 0 0 0 0 0 0 0 0 0 0 0 0 0 0 0 0 0 0 0 0 0 0 0 
0 0 0 0 0 0 0 0 0 0 0 0 0 0 0 0 0 0 0 0 0 0 0 0 0 0 0 0 0 0 0 0 0 1 -2 1 0 0 0 0 0 0 0 0 -2 2 0 0 0 0 0 0 0 0 1 0 0 0 0 0 0 0 0 0 0 0 0 0 0 0 0 0 0 0 0 0 0 0 0 0 0 0 0 0 0 0 0 0 0 0 0 
0 0 0 0 0 0 0 0 0 0 0 0 0 0 0 0 0 0 0 0 0 0 0 0 0 0 0 0 0 0 0 0 0 0 1 -1 0 0 0 0 0 0 0 0 0 -1 0 0 0 0 0 0 0 0 0 0 0 0 0 0 0 0 0 0 0 0 0 0 0 0 0 0 0 0 0 0 0 0 0 0 0 0 0 0 0 0 0 0 0 0 0 
0 0 0 0 0 0 0 0 0 0 0 0 0 0 0 0 0 0 0 0 0 0 0 0 0 0 0 0 0 0 0 0 0 0 0 1 0 0 0 0 0 0 0 0 0 0 0 0 0 0 0 0 0 0 0 0 0 0 0 0 0 0 0 0 0 0 0 0 0 0 0 0 0 0 0 0 0 0 0 0 0 0 0 0 0 0 0 0 0 0 0 
0 0 0 0 0 0 0 0 0 0 0 0 0 0 0 0 0 0 0 0 0 0 0 0 0 0 0 0 0 0 0 0 0 0 0 0 1 -9 36 -84 126 -126 84 -36 9 -1 -9 72 -252 504 -630 504 -252 72 -9 36 -252 756 -1260 1260 -756 252 -36 -84 504 -1260 1680 -1260 504 -84 126 -630 1260 -1260 630 -126 -126 504 -756 504 -126 84 -252 252 -84 -36 72 -36 9 -9 -1 
0 0 0 0 0 0 0 0 0 0 0 0 0 0 0 0 0 0 0 0 0 0 0 0 0 0 0 0 0 0 0 0 0 0 0 0 0 1 -8 28 -56 70 -56 28 -8 1 0 -8 56 -168 280 -280 168 -56 8 0 28 -168 420 -560 420 -168 28 0 -56 280 -560 560 -280 56 0 70 -280 420 -280 70 0 -56 168 -168 56 0 28 -56 28 0 -8 8 0 1 0 
0 0 0 0 0 0 0 0 0 0 0 0 0 0 0 0 0 0 0 0 0 0 0 0 0 0 0 0 0 0 0 0 0 0 0 0 0 0 1 -7 21 -35 35 -21 7 -1 0 0 -7 42 -105 140 -105 42 -7 0 0 21 -105 210 -210 105 -21 0 0 -35 140 -210 140 -35 0 0 35 -105 105 -35 0 0 -21 42 -21 0 0 7 -7 0 0 -1 0 0 0 
0 0 0 0 0 0 0 0 0 0 0 0 0 0 0 0 0 0 0 0 0 0 0 0 0 0 0 0 0 0 0 0 0 0 0 0 0 0 0 1 -6 15 -20 15 -6 1 0 0 0 -6 30 -60 60 -30 6 0 0 0 15 -60 90 -60 15 0 0 0 -20 60 -60 20 0 0 0 15 -30 15 0 0 0 -6 6 0 0 0 1 0 0 0 0 0 0 
0 0 0 0 0 0 0 0 0 0 0 0 0 0 0 0 0 0 0 0 0 0 0 0 0 0 0 0 0 0 0 0 0 0 0 0 0 0 0 0 1 -5 10 -10 5 -1 0 0 0 0 -5 20 -30 20 -5 0 0 0 0 10 -30 30 -10 0 0 0 0 -10 20 -10 0 0 0 0 5 -5 0 0 0 0 -1 0 0 0 0 0 0 0 0 0 0 
0 0 0 0 0 0 0 0 0 0 0 0 0 0 0 0 0 0 0 0 0 0 0 0 0 0 0 0 0 0 0 0 0 0 0 0 0 0 0 0 0 1 -4 6 -4 1 0 0 0 0 0 -4 12 -12 4 0 0 0 0 0 6 -12 6 0 0 0 0 0 -4 4 0 0 0 0 0 1 0 0 0 0 0 0 0 0 0 0 0 0 0 0 0 
0 0 0 0 0 0 0 0 0 0 0 0 0 0 0 0 0 0 0 0 0 0 0 0 0 0 0 0 0 0 0 0 0 0 0 0 0 0 0 0 0 0 1 -3 3 -1 0 0 0 0 0 0 -3 6 -3 0 0 0 0 0 0 3 -3 0 0 0 0 0 0 -1 0 0 0 0 0 0 0 0 0 0 0 0 0 0 0 0 0 0 0 0 0 
0 0 0 0 0 0 0 0 0 0 0 0 0 0 0 0 0 0 0 0 0 0 0 0 0 0 0 0 0 0 0 0 0 0 0 0 0 0 0 0 0 0 0 1 -2 1 0 0 0 0 0 0 0 -2 2 0 0 0 0 0 0 0 1 0 0 0 0 0 0 0 0 0 0 0 0 0 0 0 0 0 0 0 0 0 0 0 0 0 0 0 0 
0 0 0 0 0 0 0 0 0 0 0 0 0 0 0 0 0 0 0 0 0 0 0 0 0 0 0 0 0 0 0 0 0 0 0 0 0 0 0 0 0 0 0 0 1 -1 0 0 0 0 0 0 0 0 -1 0 0 0 0 0 0 0 0 0 0 0 0 0 0 0 0 0 0 0 0 0 0 0 0 0 0 0 0 0 0 0 0 0 0 0 0 
0 0 0 0 0 0 0 0 0 0 0 0 0 0 0 0 0 0 0 0 0 0 0 0 0 0 0 0 0 0 0 0 0 0 0 0 0 0 0 0 0 0 0 0 0 1 0 0 0 0 0 0 0 0 0 0 0 0 0 0 0 0 0 0 0 0 0 0 0 0 0 0 0 0 0 0 0 0 0 0 0 0 0 0 0 0 0 0 0 0 0 
0 0 0 0 0 0 0 0 0 0 0 0 0 0 0 0 0 0 0 0 0 0 0 0 0 0 0 0 0 0 0 0 0 0 0 0 0 0 0 0 0 0 0 0 0 0 1 -8 28 -56 70 -56 28 -8 1 -8 56 -168 280 -280 168 -56 8 28 -168 420 -560 420 -168 28 -56 280 -560 560 -280 56 70 -280 420 -280 70 -56 168 -168 56 28 -56 28 -8 8 1 
0 0 0 0 0 0 0 0 0 0 0 0 0 0 0 0 0 0 0 0 0 0 0 0 0 0 0 0 0 0 0 0 0 0 0 0 0 0 0 0 0 0 0 0 0 0 0 1 -7 21 -35 35 -21 7 -1 0 -7 42 -105 140 -105 42 -7 0 21 -105 210 -210 105 -21 0 -35 140 -210 140 -35 0 35 -105 105 -35 0 -21 42 -21 0 7 -7 0 -1 0 
0 0 0 0 0 0 0 0 0 0 0 0 0 0 0 0 0 0 0 0 0 0 0 0 0 0 0 0 0 0 0 0 0 0 0 0 0 0 0 0 0 0 0 0 0 0 0 0 1 -6 15 -20 15 -6 1 0 0 -6 30 -60 60 -30 6 0 0 15 -60 90 -60 15 0 0 -20 60 -60 20 0 0 15 -30 15 0 0 -6 6 0 0 1 0 0 0 
0 0 0 0 0 0 0 0 0 0 0 0 0 0 0 0 0 0 0 0 0 0 0 0 0 0 0 0 0 0 0 0 0 0 0 0 0 0 0 0 0 0 0 0 0 0 0 0 0 1 -5 10 -10 5 -1 0 0 0 -5 20 -30 20 -5 0 0 0 10 -30 30 -10 0 0 0 -10 20 -10 0 0 0 5 -5 0 0 0 -1 0 0 0 0 0 0 
0 0 0 0 0 0 0 0 0 0 0 0 0 0 0 0 0 0 0 0 0 0 0 0 0 0 0 0 0 0 0 0 0 0 0 0 0 0 0 0 0 0 0 0 0 0 0 0 0 0 1 -4 6 -4 1 0 0 0 0 -4 12 -12 4 0 0 0 0 6 -12 6 0 0 0 0 -4 4 0 0 0 0 1 0 0 0 0 0 0 0 0 0 0 
0 0 0 0 0 0 0 0 0 0 0 0 0 0 0 0 0 0 0 0 0 0 0 0 0 0 0 0 0 0 0 0 0 0 0 0 0 0 0 0 0 0 0 0 0 0 0 0 0 0 0 1 -3 3 -1 0 0 0 0 0 -3 6 -3 0 0 0 0 0 3 -3 0 0 0 0 0 -1 0 0 0 0 0 0 0 0 0 0 0 0 0 0 0 
0 0 0 0 0 0 0 0 0 0 0 0 0 0 0 0 0 0 0 0 0 0 0 0 0 0 0 0 0 0 0 0 0 0 0 0 0 0 0 0 0 0 0 0 0 0 0 0 0 0 0 0 1 -2 1 0 0 0 0 0 0 -2 2 0 0 0 0 0 0 1 0 0 0 0 0 0 0 0 0 0 0 0 0 0 0 0 0 0 0 0 0 
0 0 0 0 0 0 0 0 0 0 0 0 0 0 0 0 0 0 0 0 0 0 0 0 0 0 0 0 0 0 0 0 0 0 0 0 0 0 0 0 0 0 0 0 0 0 0 0 0 0 0 0 0 1 -1 0 0 0 0 0 0 0 -1 0 0 0 0 0 0 0 0 0 0 0 0 0 0 0 0 0 0 0 0 0 0 0 0 0 0 0 0 
0 0 0 0 0 0 0 0 0 0 0 0 0 0 0 0 0 0 0 0 0 0 0 0 0 0 0 0 0 0 0 0 0 0 0 0 0 0 0 0 0 0 0 0 0 0 0 0 0 0 0 0 0 0 1 0 0 0 0 0 0 0 0 0 0 0 0 0 0 0 0 0 0 0 0 0 0 0 0 0 0 0 0 0 0 0 0 0 0 0 0 
0 0 0 0 0 0 0 0 0 0 0 0 0 0 0 0 0 0 0 0 0 0 0 0 0 0 0 0 0 0 0 0 0 0 0 0 0 0 0 0 0 0 0 0 0 0 0 0 0 0 0 0 0 0 0 1 -7 21 -35 35 -21 7 -1 -7 42 -105 140 -105 42 -7 21 -105 210 -210 105 -21 -35 140 -210 140 -35 35 -105 105 -35 -21 42 -21 7 -7 -1 
0 0 0 0 0 0 0 0 0 0 0 0 0 0 0 0 0 0 0 0 0 0 0 0 0 0 0 0 0 0 0 0 0 0 0 0 0 0 0 0 0 0 0 0 0 0 0 0 0 0 0 0 0 0 0 0 1 -6 15 -20 15 -6 1 0 -6 30 -60 60 -30 6 0 15 -60 90 -60 15 0 -20 60 -60 20 0 15 -30 15 0 -6 6 0 1 0 
0 0 0 0 0 0 0 0 0 0 0 0 0 0 0 0 0 0 0 0 0 0 0 0 0 0 0 0 0 0 0 0 0 0 0 0 0 0 0 0 0 0 0 0 0 0 0 0 0 0 0 0 0 0 0 0 0 1 -5 10 -10 5 -1 0 0 -5 20 -30 20 -5 0 0 10 -30 30 -10 0 0 -10 20 -10 0 0 5 -5 0 0 -1 0 0 0 
0 0 0 0 0 0 0 0 0 0 0 0 0 0 0 0 0 0 0 0 0 0 0 0 0 0 0 0 0 0 0 0 0 0 0 0 0 0 0 0 0 0 0 0 0 0 0 0 0 0 0 0 0 0 0 0 0 0 1 -4 6 -4 1 0 0 0 -4 12 -12 4 0 0 0 6 -12 6 0 0 0 -4 4 0 0 0 1 0 0 0 0 0 0 
0 0 0 0 0 0 0 0 0 0 0 0 0 0 0 0 0 0 0 0 0 0 0 0 0 0 0 0 0 0 0 0 0 0 0 0 0 0 0 0 0 0 0 0 0 0 0 0 0 0 0 0 0 0 0 0 0 0 0 1 -3 3 -1 0 0 0 0 -3 6 -3 0 0 0 0 3 -3 0 0 0 0 -1 0 0 0 0 0 0 0 0 0 0 
0 0 0 0 0 0 0 0 0 0 0 0 0 0 0 0 0 0 0 0 0 0 0 0 0 0 0 0 0 0 0 0 0 0 0 0 0 0 0 0 0 0 0 0 0 0 0 0 0 0 0 0 0 0 0 0 0 0 0 0 1 -2 1 0 0 0 0 0 -2 2 0 0 0 0 0 1 0 0 0 0 0 0 0 0 0 0 0 0 0 0 0 
0 0 0 0 0 0 0 0 0 0 0 0 0 0 0 0 0 0 0 0 0 0 0 0 0 0 0 0 0 0 0 0 0 0 0 0 0 0 0 0 0 0 0 0 0 0 0 0 0 0 0 0 0 0 0 0 0 0 0 0 0 1 -1 0 0 0 0 0 0 -1 0 0 0 0 0 0 0 0 0 0 0 0 0 0 0 0 0 0 0 0 0 
0 0 0 0 0 0 0 0 0 0 0 0 0 0 0 0 0 0 0 0 0 0 0 0 0 0 0 0 0 0 0 0 0 0 0 0 0 0 0 0 0 0 0 0 0 0 0 0 0 0 0 0 0 0 0 0 0 0 0 0 0 0 1 0 0 0 0 0 0 0 0 0 0 0 0 0 0 0 0 0 0 0 0 0 0 0 0 0 0 0 0 
0 0 0 0 0 0 0 0 0 0 0 0 0 0 0 0 0 0 0 0 0 0 0 0 0 0 0 0 0 0 0 0 0 0 0 0 0 0 0 0 0 0 0 0 0 0 0 0 0 0 0 0 0 0 0 0 0 0 0 0 0 0 0 1 -6 15 -20 15 -6 1 -6 30 -60 60 -30 6 15 -60 90 -60 15 -20 60 -60 20 15 -30 15 -6 6 1 
0 0 0 0 0 0 0 0 0 0 0 0 0 0 0 0 0 0 0 0 0 0 0 0 0 0 0 0 0 0 0 0 0 0 0 0 0 0 0 0 0 0 0 0 0 0 0 0 0 0 0 0 0 0 0 0 0 0 0 0 0 0 0 0 1 -5 10 -10 5 -1 0 -5 20 -30 20 -5 0 10 -30 30 -10 0 -10 20 -10 0 5 -5 0 -1 0 
0 0 0 0 0 0 0 0 0 0 0 0 0 0 0 0 0 0 0 0 0 0 0 0 0 0 0 0 0 0 0 0 0 0 0 0 0 0 0 0 0 0 0 0 0 0 0 0 0 0 0 0 0 0 0 0 0 0 0 0 0 0 0 0 0 1 -4 6 -4 1 0 0 -4 12 -12 4 0 0 6 -12 6 0 0 -4 4 0 0 1 0 0 0 
0 0 0 0 0 0 0 0 0 0 0 0 0 0 0 0 0 0 0 0 0 0 0 0 0 0 0 0 0 0 0 0 0 0 0 0 0 0 0 0 0 0 0 0 0 0 0 0 0 0 0 0 0 0 0 0 0 0 0 0 0 0 0 0 0 0 1 -3 3 -1 0 0 0 -3 6 -3 0 0 0 3 -3 0 0 0 -1 0 0 0 0 0 0 
0 0 0 0 0 0 0 0 0 0 0 0 0 0 0 0 0 0 0 0 0 0 0 0 0 0 0 0 0 0 0 0 0 0 0 0 0 0 0 0 0 0 0 0 0 0 0 0 0 0 0 0 0 0 0 0 0 0 0 0 0 0 0 0 0 0 0 1 -2 1 0 0 0 0 -2 2 0 0 0 0 1 0 0 0 0 0 0 0 0 0 0 
0 0 0 0 0 0 0 0 0 0 0 0 0 0 0 0 0 0 0 0 0 0 0 0 0 0 0 0 0 0 0 0 0 0 0 0 0 0 0 0 0 0 0 0 0 0 0 0 0 0 0 0 0 0 0 0 0 0 0 0 0 0 0 0 0 0 0 0 1 -1 0 0 0 0 0 -1 0 0 0 0 0 0 0 0 0 0 0 0 0 0 0 
0 0 0 0 0 0 0 0 0 0 0 0 0 0 0 0 0 0 0 0 0 0 0 0 0 0 0 0 0 0 0 0 0 0 0 0 0 0 0 0 0 0 0 0 0 0 0 0 0 0 0 0 0 0 0 0 0 0 0 0 0 0 0 0 0 0 0 0 0 1 0 0 0 0 0 0 0 0 0 0 0 0 0 0 0 0 0 0 0 0 0 
0 0 0 0 0 0 0 0 0 0 0 0 0 0 0 0 0 0 0 0 0 0 0 0 0 0 0 0 0 0 0 0 0 0 0 0 0 0 0 0 0 0 0 0 0 0 0 0 0 0 0 0 0 0 0 0 0 0 0 0 0 0 0 0 0 0 0 0 0 0 1 -5 10 -10 5 -1 -5 20 -30 20 -5 10 -30 30 -10 -10 20 -10 5 -5 -1 
0 0 0 0 0 0 0 0 0 0 0 0 0 0 0 0 0 0 0 0 0 0 0 0 0 0 0 0 0 0 0 0 0 0 0 0 0 0 0 0 0 0 0 0 0 0 0 0 0 0 0 0 0 0 0 0 0 0 0 0 0 0 0 0 0 0 0 0 0 0 0 1 -4 6 -4 1 0 -4 12 -12 4 0 6 -12 6 0 -4 4 0 1 0 
0 0 0 0 0 0 0 0 0 0 0 0 0 0 0 0 0 0 0 0 0 0 0 0 0 0 0 0 0 0 0 0 0 0 0 0 0 0 0 0 0 0 0 0 0 0 0 0 0 0 0 0 0 0 0 0 0 0 0 0 0 0 0 0 0 0 0 0 0 0 0 0 1 -3 3 -1 0 0 -3 6 -3 0 0 3 -3 0 0 -1 0 0 0 
0 0 0 0 0 0 0 0 0 0 0 0 0 0 0 0 0 0 0 0 0 0 0 0 0 0 0 0 0 0 0 0 0 0 0 0 0 0 0 0 0 0 0 0 0 0 0 0 0 0 0 0 0 0 0 0 0 0 0 0 0 0 0 0 0 0 0 0 0 0 0 0 0 1 -2 1 0 0 0 -2 2 0 0 0 1 0 0 0 0 0 0 
0 0 0 0 0 0 0 0 0 0 0 0 0 0 0 0 0 0 0 0 0 0 0 0 0 0 0 0 0 0 0 0 0 0 0 0 0 0 0 0 0 0 0 0 0 0 0 0 0 0 0 0 0 0 0 0 0 0 0 0 0 0 0 0 0 0 0 0 0 0 0 0 0 0 1 -1 0 0 0 0 -1 0 0 0 0 0 0 0 0 0 0 
0 0 0 0 0 0 0 0 0 0 0 0 0 0 0 0 0 0 0 0 0 0 0 0 0 0 0 0 0 0 0 0 0 0 0 0 0 0 0 0 0 0 0 0 0 0 0 0 0 0 0 0 0 0 0 0 0 0 0 0 0 0 0 0 0 0 0 0 0 0 0 0 0 0 0 1 0 0 0 0 0 0 0 0 0 0 0 0 0 0 0 
0 0 0 0 0 0 0 0 0 0 0 0 0 0 0 0 0 0 0 0 0 0 0 0 0 0 0 0 0 0 0 0 0 0 0 0 0 0 0 0 0 0 0 0 0 0 0 0 0 0 0 0 0 0 0 0 0 0 0 0 0 0 0 0 0 0 0 0 0 0 0 0 0 0 0 0 1 -4 6 -4 1 -4 12 -12 4 6 -12 6 -4 4 1 
0 0 0 0 0 0 0 0 0 0 0 0 0 0 0 0 0 0 0 0 0 0 0 0 0 0 0 0 0 0 0 0 0 0 0 0 0 0 0 0 0 0 0 0 0 0 0 0 0 0 0 0 0 0 0 0 0 0 0 0 0 0 0 0 0 0 0 0 0 0 0 0 0 0 0 0 0 1 -3 3 -1 0 -3 6 -3 0 3 -3 0 -1 0 
0 0 0 0 0 0 0 0 0 0 0 0 0 0 0 0 0 0 0 0 0 0 0 0 0 0 0 0 0 0 0 0 0 0 0 0 0 0 0 0 0 0 0 0 0 0 0 0 0 0 0 0 0 0 0 0 0 0 0 0 0 0 0 0 0 0 0 0 0 0 0 0 0 0 0 0 0 0 1 -2 1 0 0 -2 2 0 0 1 0 0 0 
0 0 0 0 0 0 0 0 0 0 0 0 0 0 0 0 0 0 0 0 0 0 0 0 0 0 0 0 0 0 0 0 0 0 0 0 0 0 0 0 0 0 0 0 0 0 0 0 0 0 0 0 0 0 0 0 0 0 0 0 0 0 0 0 0 0 0 0 0 0 0 0 0 0 0 0 0 0 0 1 -1 0 0 0 -1 0 0 0 0 0 0 
0 0 0 0 0 0 0 0 0 0 0 0 0 0 0 0 0 0 0 0 0 0 0 0 0 0 0 0 0 0 0 0 0 0 0 0 0 0 0 0 0 0 0 0 0 0 0 0 0 0 0 0 0 0 0 0 0 0 0 0 0 0 0 0 0 0 0 0 0 0 0 0 0 0 0 0 0 0 0 0 1 0 0 0 0 0 0 0 0 0 0 
0 0 0 0 0 0 0 0 0 0 0 0 0 0 0 0 0 0 0 0 0 0 0 0 0 0 0 0 0 0 0 0 0 0 0 0 0 0 0 0 0 0 0 0 0 0 0 0 0 0 0 0 0 0 0 0 0 0 0 0 0 0 0 0 0 0 0 0 0 0 0 0 0 0 0 0 0 0 0 0 0 1 -3 3 -1 -3 6 -3 3 -3 -1 
0 0 0 0 0 0 0 0 0 0 0 0 0 0 0 0 0 0 0 0 0 0 0 0 0 0 0 0 0 0 0 0 0 0 0 0 0 0 0 0 0 0 0 0 0 0 0 0 0 0 0 0 0 0 0 0 0 0 0 0 0 0 0 0 0 0 0 0 0 0 0 0 0 0 0 0 0 0 0 0 0 0 1 -2 1 0 -2 2 0 1 0 
0 0 0 0 0 0 0 0 0 0 0 0 0 0 0 0 0 0 0 0 0 0 0 0 0 0 0 0 0 0 0 0 0 0 0 0 0 0 0 0 0 0 0 0 0 0 0 0 0 0 0 0 0 0 0 0 0 0 0 0 0 0 0 0 0 0 0 0 0 0 0 0 0 0 0 0 0 0 0 0 0 0 0 1 -1 0 0 -1 0 0 0 
0 0 0 0 0 0 0 0 0 0 0 0 0 0 0 0 0 0 0 0 0 0 0 0 0 0 0 0 0 0 0 0 0 0 0 0 0 0 0 0 0 0 0 0 0 0 0 0 0 0 0 0 0 0 0 0 0 0 0 0 0 0 0 0 0 0 0 0 0 0 0 0 0 0 0 0 0 0 0 0 0 0 0 0 1 0 0 0 0 0 0 
0 0 0 0 0 0 0 0 0 0 0 0 0 0 0 0 0 0 0 0 0 0 0 0 0 0 0 0 0 0 0 0 0 0 0 0 0 0 0 0 0 0 0 0 0 0 0 0 0 0 0 0 0 0 0 0 0 0 0 0 0 0 0 0 0 0 0 0 0 0 0 0 0 0 0 0 0 0 0 0 0 0 0 0 0 1 -2 1 -2 2 1 
0 0 0 0 0 0 0 0 0 0 0 0 0 0 0 0 0 0 0 0 0 0 0 0 0 0 0 0 0 0 0 0 0 0 0 0 0 0 0 0 0 0 0 0 0 0 0 0 0 0 0 0 0 0 0 0 0 0 0 0 0 0 0 0 0 0 0 0 0 0 0 0 0 0 0 0 0 0 0 0 0 0 0 0 0 0 1 -1 0 -1 0 
0 0 0 0 0 0 0 0 0 0 0 0 0 0 0 0 0 0 0 0 0 0 0 0 0 0 0 0 0 0 0 0 0 0 0 0 0 0 0 0 0 0 0 0 0 0 0 0 0 0 0 0 0 0 0 0 0 0 0 0 0 0 0 0 0 0 0 0 0 0 0 0 0 0 0 0 0 0 0 0 0 0 0 0 0 0 0 1 0 0 0 
0 0 0 0 0 0 0 0 0 0 0 0 0 0 0 0 0 0 0 0 0 0 0 0 0 0 0 0 0 0 0 0 0 0 0 0 0 0 0 0 0 0 0 0 0 0 0 0 0 0 0 0 0 0 0 0 0 0 0 0 0 0 0 0 0 0 0 0 0 0 0 0 0 0 0 0 0 0 0 0 0 0 0 0 0 0 0 0 1 -1 -1 
0 0 0 0 0 0 0 0 0 0 0 0 0 0 0 0 0 0 0 0 0 0 0 0 0 0 0 0 0 0 0 0 0 0 0 0 0 0 0 0 0 0 0 0 0 0 0 0 0 0 0 0 0 0 0 0 0 0 0 0 0 0 0 0 0 0 0 0 0 0 0 0 0 0 0 0 0 0 0 0 0 0 0 0 0 0 0 0 0 1 0 
0 0 0 0 0 0 0 0 0 0 0 0 0 0 0 0 0 0 0 0 0 0 0 0 0 0 0 0 0 0 0 0 0 0 0 0 0 0 0 0 0 0 0 0 0 0 0 0 0 0 0 0 0 0 0 0 0 0 0 0 0 0 0 0 0 0 0 0 0 0 0 0 0 0 0 0 0 0 0 0 0 0 0 0 0 0 0 0 0 0 1 
91 3
0 0 0 
1 0 0 
2 0 0 
3 0 0 
4 0 0 
5 0 0 
6 0 0 
7 0 0 
8 0 0 
9 0 0 
10 0 0 
11 0 0 
12 0 0 
0 1 0 
1 1 0 
2 1 0 
3 1 0 
4 1 0 
5 1 0 
6 1 0 
7 1 0 
8 1 0 
9 1 0 
10 1 0 
11 1 0 
0 2 0 
1 2 0 
2 2 0 
3 2 0 
4 2 0 
5 2 0 
6 2 0 
7 2 0 
8 2 0 
9 2 0 
10 2 0 
0 3 0 
1 3 0 
2 3 0 
3 3 0 
4 3 0 
5 3 0 
6 3 0 
7 3 0 
8 3 0 
9 3 0 
0 4 0 
1 4 0 
2 4 0 
3 4 0 
4 4 0 
5 4 0 
6 4 0 
7 4 0 
8 4 0 
0 5 0 
1 5 0 
2 5 0 
3 5 0 
4 5 0 
5 5 0 
6 5 0 
7 5 0 
0 6 0 
1 6 0 
2 6 0 
3 6 0 
4 6 0 
5 6 0 
6 6 0 
0 7 0 
1 7 0 
2 7 0 
3 7 0 
4 7 0 
5 7 0 
0 8 0 
1 8 0 
2 8 0 
3 8 0 
4 8 0 
0 9 0 
1 9 0 
2 9 0 
3 9 0 
0 10 0 
1 10 0 
2 10 0 
0 11 0 
1 11 0 
0 12 0 
$EndInterpolationScheme
