Point(1) = {0,0,0,1};
Point(2) = {1,0,0,1};
Point(3) = {1,1,0,1};
Point(4) = {0,1,0,1};
Line(1) = {1,2};
Line(2) = {2,3};
Line(3) = {3,4};
Line(4) = {4,1};
Line Loop(5) = {3,4,1,2};
Plane Surface(6) = {5};
Physical Line(21) = {1};
Physical Line(22) = {2,4};
Physical Line(23) = {3};
Physical Surface(50) = {6};
