$MeshFormat
2.2 0 8
$EndMeshFormat
$Nodes
13
1 0 0 0
2 1 0 0
3 0.5 0 0
4 1 1 0
5 1 0.5 0
6 0 1 0
7 0.5 1 0
8 0 0.5 0
9 0.5 0.5 0
10 0.75 0.25 0
11 0.25 0.25 0
12 0.25 0.75 0
13 0.75 0.75 0
$EndNodes
$Elements
24
1 1 2 21 1 1 3
2 1 2 21 1 3 2
3 1 2 22 2 2 5
4 1 2 22 2 5 4
5 1 2 23 3 4 7
6 1 2 23 3 7 6
7 1 2 22 4 6 8
8 1 2 22 4 8 1
9 2 2 50 6 1 3 11
10 2 2 50 6 3 10 11
11 2 2 50 6 3 2 10
12 2 2 50 6 11 10 9
13 2 2 50 6 1 11 8
14 2 2 50 6 11 12 8
15 2 2 50 6 11 9 12
16 2 2 50 6 8 12 6
17 2 2 50 6 2 5 10
18 2 2 50 6 5 13 10
19 2 2 50 6 5 4 13
20 2 2 50 6 10 13 9
21 2 2 50 6 4 7 13
22 2 2 50 6 7 12 13
23 2 2 50 6 7 6 12
24 2 2 50 6 13 12 9
$EndElements
