$InterpolationScheme
"Basis2D 5"
1
3
2
21 21
1 -5 10 -10 5 -1 -5 20 -30 20 -5 10 -30 30 -10 -10 20 -10 5 -5 -1 
0 1 -4 6 -4 1 0 -4 12 -12 4 0 6 -12 6 0 -4 4 0 1 0 
0 0 0 0 0 0 1 -4 6 -4 1 -4 12 -12 4 6 -12 6 -4 4 1 
0 0 1 -3 3 -1 0 0 -3 6 -3 0 0 3 -3 0 0 -1 0 0 0 
0 0 0 0 0 0 0 1 -3 3 -1 0 -3 6 -3 0 3 -3 0 -1 0 
0 0 0 0 0 0 0 0 0 0 0 1 -3 3 -1 -3 6 -3 3 -3 -1 
0 0 0 1 -2 1 0 0 0 -2 2 0 0 0 1 0 0 0 0 0 0 
0 0 0 0 0 0 0 0 1 -2 1 0 0 -2 2 0 0 1 0 0 0 
0 0 0 0 0 0 0 0 0 0 0 0 1 -2 1 0 -2 2 0 1 0 
0 0 0 0 0 0 0 0 0 0 0 0 0 0 0 1 -2 1 -2 2 1 
0 0 0 0 1 -1 0 0 0 0 -1 0 0 0 0 0 0 0 0 0 0 
0 0 0 0 0 0 0 0 0 1 -1 0 0 0 -1 0 0 0 0 0 0 
0 0 0 0 0 0 0 0 0 0 0 0 0 1 -1 0 0 -1 0 0 0 
0 0 0 0 0 0 0 0 0 0 0 0 0 0 0 0 1 -1 0 -1 0 
0 0 0 0 0 0 0 0 0 0 0 0 0 0 0 0 0 0 1 -1 -1 
0 0 0 0 0 1 0 0 0 0 0 0 0 0 0 0 0 0 0 0 0 
0 0 0 0 0 0 0 0 0 0 1 0 0 0 0 0 0 0 0 0 0 
0 0 0 0 0 0 0 0 0 0 0 0 0 0 1 0 0 0 0 0 0 
0 0 0 0 0 0 0 0 0 0 0 0 0 0 0 0 0 1 0 0 0 
0 0 0 0 0 0 0 0 0 0 0 0 0 0 0 0 0 0 0 1 0 
0 0 0 0 0 0 0 0 0 0 0 0 0 0 0 0 0 0 0 0 1 
21 3
0 0 0 
1 0 0 
2 0 0 
3 0 0 
4 0 0 
5 0 0 
0 1 0 
1 1 0 
2 1 0 
3 1 0 
4 1 0 
0 2 0 
1 2 0 
2 2 0 
3 2 0 
0 3 0 
1 3 0 
2 3 0 
0 4 0 
1 4 0 
0 5 0 
$EndInterpolationScheme
