$InterpolationScheme
"Basis1D 5"
1
2
2
6 6
0 0 0 0 0 1 
0 0 0 0 1 -1 
0 0 0 1 -2 1 
0 0 1 -3 3 -1 
0 1 -4 6 -4 1 
1 -5 10 -10 5 -1 
6 3
0 0 0 
1 0 0 
2 0 0 
3 0 0 
4 0 0 
5 0 0 
$EndInterpolationScheme
