$InterpolationScheme
"Basis1D 7"
1
2
2
8 8
0 0 0 0 0 0 0 1 
0 0 0 0 0 0 1 -1 
0 0 0 0 0 1 -2 1 
0 0 0 0 1 -3 3 -1 
0 0 0 1 -4 6 -4 1 
0 0 1 -5 10 -10 5 -1 
0 1 -6 15 -20 15 -6 1 
1 -7 21 -35 35 -21 7 -1 
8 3
0 0 0 
1 0 0 
2 0 0 
3 0 0 
4 0 0 
5 0 0 
6 0 0 
7 0 0 
$EndInterpolationScheme
